Dataset - Rural-Urban Classification
…
Manual fips codes

Code
addresses_geo |>
  filter(is.na(fips_geo) & (group == "geocode")) |>
  arrange(Prscrbr_State_Abrvtn, Prscrbr_City) |>
  select(address)

# A tibble: 69 × 1
   address                                       
   <chr>                                         
 1 221 E Hampden Ave, Englewood, CO 80113        
 2 499 E Hampden Ave, Englewood, CO 80113        
 3 601 E Hampden Ave, Englewood, CO 80113        
 4 799 E Hampden Avenue, Englewood, CO 80113     
 5 799 E Hampden Ave, Englewood, CO 80113        
 6 2955 S Broadway, Englewood, CO 80113          
 7 701 E Hampden Ave, Englewood, CO 80113        
 8 3333 S Bannock St, Englewood, CO 80110        
 9 3277 S Lincoln St, Englewood, CO 80113        
10 499 E Hampden Ave Ste 220, Englewood, CO 80113
# ℹ 59 more rows
…
