Dataset - Geocoding to County
…
We can see that about half of the addresses have been successfully resolved.

Remaining Addresses

Examine the addresses which were not matched by USGS, zipcode, or geocoding:

Code
addresses_geo |>
  filter(query0 == "geo" & is.na(fips_geo)) |>
  select(address)

# A tibble: 69 × 1
   address                                     
   <chr>                                       
 1 221 E Hampden Ave, Englewood, CO 80113      
 2 499 E Hampden Ave, Englewood, CO 80113      
 3 5257 S Wadsworth Blvd, Littleton, CO 80123  
 4 601 E Hampden Ave, Englewood, CO 80113      
 5 13199 Centerpointe Way, Woodbridge, VA 22193
 6 6169 S Balsam Way, Littleton, CO 80123      
 7 112 Champagne Blvd, Breaux Bridge, LA 70517 
 8 799 E Hampden Avenue, Englewood, CO 80113   
 9 799 E Hampden Ave, Englewood, CO 80113      
10 1555 Gary Dr Ste C, Breaux Bridge, LA 70517 
# ℹ 59 more rows
…
