Dataset - Treatment Variable
…
# cleanup
rm(prv_year, year)

Provider Type

Overview of provider types

Code
data_tx |> 
  group_by(Prscrbr_Type) |> 
  summarize(n = n()) |> 
  arrange(desc(n))

# A tibble: 142 × 2
   Prscrbr_Type                              n
   <chr>                                 <int>
 1 Family Practice                      121211
 2 Internal Medicine                     86641
 3 Nurse Practitioner                    68913
 4 Psychiatry                            46873
 5 Physician Assistant                   30668
 6 Anesthesiology                        23472
 7 Physical Medicine and Rehabilitation  21207
 8 Pain Management                       18422
 9 Interventional Pain Management        16200
10 General Practice                       8436
# ℹ 132 more rows
…
`summarise()` has grouped output by 'Prscrbr_Type'. You can override using the
`.groups` argument.

# A tibble: 90 × 5
# Groups:   year [9]
   Prscrbr_Type                      year     n Supply_yr Supply_per_Provider_yr
   <chr>                            <int> <int>     <dbl>                  <dbl>
 1 Family Practice                   2013  2559     7994.                    3.1
 2 Psychiatry                        2013  2450     7254                     3  
 3 Internal Medicine                 2013  1690     5724.                    3.4
 4 Psychiatry & Neurology            2013   400      953.                    2.4
 5 General Practice                  2013   348     1128.                    3.2
 6 Anesthesiology                    2013   329      952.                    2.9
 7 Physical Medicine and Rehabilit…  2013   310      935.                    3  
 8 Emergency Medicine                2013   274     1076.                    3.9
 9 Interventional Pain Management    2013   239      653.                    2.7
10 Addiction Medicine                2013   179      808.                    4.5
# ℹ 80 more rows
…
